Name: Joe   Age: 21   Birthdate: 8/19/1995 12:00:00 AM   Gender: Male
Name: Nathan   Age: 23   Birthdate: 3/31/2015 12:00:00 AM   Gender: Female
Name: asd   Age: 23   Birthdate: 3/31/2015 12:00:00 AM   Gender: Female
Name: blah blah   Age: 76   Birthdate: 2/2/2222 12:00:00 AM   Gender: Male
Name: Casey   Age: 21   Birthdate: 2/17/1996 12:00:00 AM   Gender: Male
Name: Tyler Vier   Age: 253   Birthdate: 1/1/2000 12:00:00 AM   Gender: Male
Name: new new nw    Age: 21   Birthdate: 1/25/1997 12:00:00 AM   Gender: Female
Name: new new nw    Age: 21   Birthdate: 1/25/1997 12:00:00 AM   Gender: Female
Name: new new nw    Age: 21   Birthdate: 1/25/1997 12:00:00 AM   Gender: Female
Name: new new nw    Age: 21   Birthdate: 1/25/1997 12:00:00 AM   Gender: Female
Name: new new nw    Age: 21   Birthdate: 1/25/1997 12:00:00 AM   Gender: Female
Name: new new nw    Age: 21   Birthdate: 1/25/1997 12:00:00 AM   Gender: Female
